{
  "noneName": {},
  "GoodsTobeEvaluatePageResponse": {
    "goodsTobeEvaluateVOPage": {
      "content": [
        {
          "autoGoodsEvaluateDate": "2017-01-23",
          "buyTime": "1982-11-09T12:22:39.851Z",
          "createPerson": "nostrud id sint consequat dolore",
          "createTime": "1967-03-13T01:08:08.106Z",
          "customerAccount": "amet et cillum velit",
          "customerId": "sint",
          "customerName": "dolor qui n",
          "evaluateImgStatus": -65118756,
          "evaluateStatus": -91335657,
          "goodsId": "cillum nisi",
          "goodsImg": "sint Lorem",
          "goodsInfoId": "in ullamco et amet Duis",
          "goodsInfoName": "velit",
          "goodsSpecDetail": "cillum et",
          "id": "occaecat Duis id amet",
          "orderNo": "occaecat ex consectetur",
          "storeId": -26157928,
          "storeName": "consectetur",
          "updatePerson": "qui et",
          "updateTime": "2008-05-10T09:48:57.281Z"
        },
        {
          "autoGoodsEvaluateDate": "1982-12-06",
          "buyTime": "1950-08-24T07:58:19.816Z",
          "createPerson": "fugiat Ut aliqua",
          "createTime": "1947-04-14T16:48:10.324Z",
          "customerAccount": "ex in",
          "customerId": "labore sint",
          "customerName": "labore",
          "evaluateImgStatus": -87019901,
          "evaluateStatus": -86814409,
          "goodsId": "occaecat velit laboris",
          "goodsImg": "mollit labore",
          "goodsInfoId": "e",
          "goodsInfoName": "irure ut commodo",
          "goodsSpecDetail": "aliquip nisi anim dolor",
          "id": "laboris ullamco incididunt laborum",
          "orderNo": "commodo",
          "storeId": -86196972,
          "storeName": "voluptate deserunt laborum esse",
          "updatePerson": "nisi et esse ea",
          "updateTime": "1980-02-24T18:14:53.242Z"
        },
        {
          "autoGoodsEvaluateDate": "1992-06-05",
          "buyTime": "1980-06-25T08:51:58.675Z",
          "createPerson": "in ea Duis est commodo",
          "createTime": "2002-01-13T03:51:17.767Z",
          "customerAccount": "in sed consectetur aute",
          "customerId": "tempor magna",
          "customerName": "in veniam occaecat",
          "evaluateImgStatus": 71989076,
          "evaluateStatus": -14480715,
          "goodsId": "voluptate aute incididunt amet",
          "goodsImg": "dolor minim culpa",
          "goodsInfoId": "velit enim est aute exercitation",
          "goodsInfoName": "ad labore aute irure dolore",
          "goodsSpecDetail": "deserunt laboris",
          "id": "anim id aliquip",
          "orderNo": "deserunt consectetur",
          "storeId": -23545495,
          "storeName": "ut",
          "updatePerson": "sed velit cillum",
          "updateTime": "2013-10-27T03:30:44.133Z"
        },
        {
          "autoGoodsEvaluateDate": "1983-03-15",
          "buyTime": "1945-07-28T04:37:13.247Z",
          "createPerson": "qui",
          "createTime": "2013-07-16T13:36:11.428Z",
          "customerAccount": "quis ea",
          "customerId": "id",
          "customerName": "velit qui dolore fugiat",
          "evaluateImgStatus": 35770378,
          "evaluateStatus": -22679080,
          "goodsId": "esse ipsum cupidatat exercitation quis",
          "goodsImg": "ut",
          "goodsInfoId": "do nulla",
          "goodsInfoName": "non eu quis ad",
          "goodsSpecDetail": "consequat deserunt Duis",
          "id": "laboris quis m",
          "orderNo": "e",
          "storeId": 27116869,
          "storeName": "ad dolor adipisicing consequat ipsum",
          "updatePerson": "ut id",
          "updateTime": "1966-01-13T02:22:25.757Z"
        }
      ],
      "empty": false,
      "first": false,
      "last": false,
      "number": 3245637,
      "numberOfElements": -84183413,
      "size": -20996990,
      "sort": {
        "empty": true,
        "sorted": false,
        "unsorted": false
      },
      "total": 20030293,
      "totalElements": 73832801,
      "totalPages": 6021146
    }
  }
}